<?xml version="1.0" encoding="UTF-8" standalone="no"?>
<!-- Created with Inkscape (http://www.inkscape.org/) -->

<svg
   fill="currentColor"
   xmlns:dc="http://purl.org/dc/elements/1.1/"
   xmlns:cc="http://creativecommons.org/ns#"
   xmlns:rdf="http://www.w3.org/1999/02/22-rdf-syntax-ns#"
   xmlns:svg="http://www.w3.org/2000/svg"
   xmlns="http://www.w3.org/2000/svg"
   xmlns:xlink="http://www.w3.org/1999/xlink"
   xmlns:sodipodi="http://sodipodi.sourceforge.net/DTD/sodipodi-0.dtd"
   xmlns:inkscape="http://www.inkscape.org/namespaces/inkscape"
   version="1.1"
   id="svg14"
   width="50"
   viewBox="0 0 855 837"
   sodipodi:docname="2 - Mon compte.svg"
   inkscape:version="0.92.4 (5da689c313, 2019-01-14)">
  <metadata
     id="metadata20">
    <rdf:RDF>
      <cc:Work
         rdf:about="">
        <dc:format>image/svg+xml</dc:format>
        <dc:type
           rdf:resource="http://purl.org/dc/dcmitype/StillImage" />
        <dc:title></dc:title>
      </cc:Work>
    </rdf:RDF>
  </metadata>
  <defs
     id="defs18" />
  <sodipodi:namedview
     pagecolor="#ffffff"
     bordercolor="#666666"
     borderopacity="1"
     objecttolerance="10"
     gridtolerance="10"
     guidetolerance="10"
     inkscape:pageopacity="0"
     inkscape:pageshadow="2"
     inkscape:window-width="640"
     inkscape:window-height="480"
     id="namedview16"
     showgrid="false"
     inkscape:zoom="0.28195938"
     inkscape:cx="427.5"
     inkscape:cy="418.5"
     inkscape:window-x="0"
     inkscape:window-y="0"
     inkscape:window-maximized="0"
     inkscape:current-layer="svg14" />
  <path
     d="m 400.54612,725.88448 c -9.32463,-11.59896 -17.87463,-21.43708 -19,-21.86249 -1.12537,-0.42541 -4.52112,-1.09482 -7.54612,-1.48757 -24.6162,-3.19602 -56.69498,-13.42871 -83,-26.47588 -21.02553,-10.42857 -37.98202,-21.47337 -56.89238,-37.05749 l -9.09951,-7.49896 11.86388,-11.86387 11.86387,-11.86388 9.97135,7.94385 c 35.50569,28.28621 80.05086,47.84816 121.64187,53.41885 l 9.84909,1.31918 13.96791,16.52189 c 7.68236,9.08704 14.32887,16.52189 14.77003,16.52189 0.44116,0 7.17834,-7.5375 14.9715,-16.75 12.30521,-14.54632 14.55025,-16.75 17.06431,-16.75 5.73448,0 29.79422,-5.03952 42.52808,-8.90787 30.77271,-9.34828 59.96447,-24.63674 84.87358,-44.45044 l 9.8792,-7.8583 11.88219,11.85123 11.88219,11.85123 -3.75858,3.27609 c -2.06722,1.80185 -8.70858,7.03994 -14.75858,11.6402 -38.37908,29.18242 -81.83961,47.59533 -131.23748,55.60135 l -7.23749,1.17299 -18.07647,21.41176 c -9.94206,11.77647 -18.3852,21.4058 -18.76252,21.39851 -0.37732,-0.007 -8.31529,-9.50331 -17.63992,-21.10227 z M 198.40995,605.80592 C 174.21002,579.41112 150.34535,535.74739 139.50313,498.0277 136.25469,486.72651 132.32031,468.7342 130.53159,457 129.85912,452.58853 129.42416,452.14733 108.42281,434.57381 96.640266,424.7144 87,416.31933 87,415.91809 c 0,-0.40124 9.660375,-8.45269 21.4675,-17.89211 18.44896,-14.74935 21.53935,-17.60996 21.97851,-20.34428 7.27888,-45.32031 19.79282,-79.63937 41.81698,-114.6817 6.14337,-9.77462 19.77335,-28.20837 26.45766,-35.78242 l 3.77935,-4.28242 11.86085,11.90857 11.86084,11.90858 -6.2232,7.37384 c -19.34759,22.92489 -38.89811,59.7099 -47.50047,89.37385 -3.36002,11.5865 -7.17367,29.23834 -8.07928,37.39564 -0.41433,3.73214 -1.38189,7.06379 -2.32331,8 -0.88731,0.8824 -8.50242,7.40764 -16.92247,14.50053 -13.62971,11.48141 -15.14411,13.06125 -13.80442,14.40094 0.82762,0.82762 8.37906,7.39934 16.78097,14.60383 l 15.27621,13.09906 1.30532,9.5 c 1.80331,13.12431 7.66547,36.33446 12.50216,49.5 9.98765,27.18653 24.40599,52.4503 42.85227,75.08557 l 5.77428,7.08557 -11.75096,11.72036 -11.75097,11.72035 z m 424.82374,-7.07157 C 617.05516,592.53825 612,587.14974 612,586.7599 c 0,-0.38985 3.01087,-4.43281 6.69082,-8.98436 26.86989,-33.23404 46.23426,-77.30092 52.97605,-120.55593 l 1.75818,-11.2804 16.80719,-14.16418 c 13.13554,-11.06992 16.5298,-14.41487 15.53747,-15.31174 -0.69834,-0.63116 -8.31742,-7.08629 -16.93128,-14.34475 l -15.66157,-13.19718 -0.68187,-5.21068 c -5.92597,-45.28448 -25.7661,-91.25072 -55.05686,-127.5575 l -6.73386,-8.34681 11.60078,-11.60078 11.60078,-11.60078 2.20194,1.94759 c 3.82741,3.38532 17.49076,20.98045 24.19288,31.15464 23.02721,34.95658 38.08981,73.15465 44.47752,112.79296 l 1.77265,11 21.47459,17.26597 c 11.81102,9.49629 21.47459,17.63987 21.47459,18.09685 0,0.45699 -9.72754,9.01682 -21.61676,19.02185 l -21.61677,18.19097 -0.66834,5.71218 c -3.9367,33.64614 -19.86408,77.41419 -40.04177,110.03385 C 656.92839,583.76982 637.0079,610 635.04296,610 c -0.31657,0 -5.63074,-5.06954 -11.80927,-11.26565 z M 385.5,582.38925 c -28.04114,-1.46504 -63.87884,-6.08501 -83.5,-10.76429 -22.01363,-5.24984 -40.36964,-12.93284 -49.16208,-20.57703 -8.91396,-7.74984 -10.41813,-14.98602 -7.34845,-35.35141 3.8719,-25.68751 14.87007,-46.43355 35.36842,-66.71601 25.42546,-25.15768 57.65467,-40.37774 100.96535,-47.68031 15.04,-2.53588 60.0872,-2.52387 74.67676,0.0199 43.62981,7.60713 75.33834,22.62312 100.64211,47.66039 20.49835,20.28246 31.49652,41.0285 35.36842,66.71601 2.98436,19.79933 1.89883,25.85064 -6.06609,33.81556 -14.79449,14.79449 -52.15788,25.4859 -108.44444,31.031 -14.77963,1.45603 -76.42009,2.68628 -92.5,1.84617 z m 15.86204,-211.37069 c -22.13139,-5.80206 -42.21292,-23.98039 -51.90274,-46.98373 -5.90903,-14.02787 -6.94499,-19.77598 -6.94499,-38.53483 0,-13.51432 0.38661,-18.43528 1.88553,-24 10.34926,-38.42147 39.96565,-63.71739 74.60016,-63.71739 19.23193,0 35.84844,7.03391 50.05952,21.19062 12.8234,12.77435 19.79681,24.86319 24.53142,42.52677 2.70563,10.09401 2.70249,36.89194 -0.006,47.5 -7.99237,31.30785 -29.93236,55.05543 -57.34123,62.06544 -9.94267,2.5429 -25.08124,2.52256 -34.88211,-0.0469 z m -165.13636,-159.29224 -11.2417,-11.27368 7.25801,-6.06749 c 40.70076,-34.02474 88.54819,-55.64529 142.49549,-64.38864 l 7.23749,-1.17299 18.11733,-21.46015 c 9.96453,-11.80309 18.47753,-21.325882 18.91778,-21.161765 0.44024,0.164117 8.48498,9.823361 17.87718,21.464985 13.09521,16.23149 17.72212,21.29848 19.84474,21.73225 1.5224,0.31111 5.918,1.04897 9.768,1.63967 47.4223,7.27601 96.07308,29.73304 136.38623,62.95539 l 9.09336,7.49391 -10.72274,10.75609 c -8.0031,8.028 -11.36115,10.75224 -13.2398,10.74088 -1.58955,-0.01 -5.75856,-2.57711 -11.31387,-6.96769 -34.48781,-27.25707 -79.20355,-46.68286 -120.05226,-52.15413 l -9.84909,-1.31918 -13.96791,-16.52189 C 425.15156,136.93485 418.50505,129.5 418.06389,129.5 c -0.44116,0 -7.17834,7.5375 -14.9715,16.75 -12.30521,14.54632 -14.55025,16.75 -17.06431,16.75 -5.73448,0 -29.79422,5.03952 -42.52808,8.90787 -30.46344,9.25433 -60.25167,24.81702 -84.63894,44.21913 -4.75141,3.78015 -9.25875,6.873 -10.01631,6.873 -0.75755,0 -6.43614,-5.07316 -12.61907,-11.27368 z"
     id="path94"
     inkscape:connector-curvature="0" />
</svg>
